…
``` r
  df
```

    ## # A tibble: 51 x 10
    ##      `2` t     `Honey: Released … X4    X5    X6    X7    X8    X9    file 
    ##    <dbl> <chr> <chr>              <chr> <chr> <chr> <chr> <chr> <chr> <chr>
    ##  1     2 t     Honey:  Number of… <NA>  <NA>  <NA>  <NA>  <NA>  <NA>  2002…
    ##  2     2 t     and Value by Stat… <NA>  <NA>  <NA>  <NA>  <NA>  <NA>  2002…
    ##  3     2 h     <NA>               <NA>  <NA>  <NA>  <NA>  <NA>  <NA>  2002…
    ##  4     2 h     <NA>               Honey Yield <NA>  <NA>  Aver… Value 2002…
    ##  5     2 h     State              Prod… per   Prod… Stoc… Pric… of    2002…
    ##  6     2 h     <NA>               Colo… Colo… <NA>  Dec … Poun… Prod… 2002…
    ##  7     2 h     <NA>               <NA>  <NA>  <NA>  <NA>  <NA>  <NA>  2002…
    ##  8     2 u     <NA>               1,000 Poun… 1,00… 1,00… Cents 1,00… 2002…
    ##  9     2 d     AL                 16    78    1248  187   59    736   2002…
    ## 10     2 d     AZ                 40    59    2360  1322  73    1723  2002…
    ## # … with 41 more rows
…
